binop(1,1,1)
binop(0,1,0)
binop(0,1,1)
binop(1,1,0)
binop(0.2,10,6)
binop(0.166666667,100,25)
binop(0.3,8,3)
binop(0.5,12,7)
binop(0.6,3,2)
binop(0.01,100,100)
binop(0.87,99,99)
binop(0.99999999,1,00)
binop(0.5,645,322)
